epoch,acc,loss,lr,val_acc,val_loss
0,0.9114853739738464,0.17206980288028717,2.4616375e-08,0.8397756218910217,0.33132943511009216
1,0.9118726849555969,0.17026375234127045,2.4616375e-08,0.7907989621162415,0.3821946382522583
2,0.912218451499939,0.16873356699943542,2.4616375e-08,0.7606821656227112,0.41042956709861755
3,0.9125467538833618,0.16735677421092987,2.4616375e-08,0.7447234988212585,0.42596882581710815
4,0.9128479957580566,0.1660754233598709,2.4616375e-08,0.7363830804824829,0.43453115224838257
5,0.9131412506103516,0.16485407948493958,2.4616375e-08,0.731902539730072,0.43923574686050415
6,0.9134277105331421,0.16368654370307922,2.3385557e-08,0.7293297052383423,0.44195544719696045
7,0.913693904876709,0.16261044144630432,2.3385557e-08,0.7278322577476501,0.44355079531669617
8,0.9139576554298401,0.16155901551246643,2.3385557e-08,0.7268419861793518,0.4446040391921997
9,0.9142147302627563,0.16053003072738647,2.3385557e-08,0.7261835932731628,0.4453105926513672
10,0.9144678115844727,0.1595168262720108,2.3385557e-08,0.7256345152854919,0.4458857476711273
11,0.914718508720398,0.15852399170398712,2.2216279e-08,0.725231945514679,0.44632694125175476
12,0.9149584174156189,0.15759721398353577,2.2216279e-08,0.7247957587242126,0.4467814266681671
13,0.9151982069015503,0.15668676793575287,2.2216279e-08,0.7244303226470947,0.4471556842327118
14,0.9154396653175354,0.15579187870025635,2.2216279e-08,0.7240893244743347,0.44751834869384766
15,0.9156787991523743,0.1549147516489029,2.2216279e-08,0.7237755060195923,0.4478518068790436
16,0.9159170389175415,0.15405860543251038,2.1105464e-08,0.7234453558921814,0.44819894433021545
17,0.9161469340324402,0.15325775742530823,2.1105464e-08,0.7231643795967102,0.4485101103782654
18,0.9163764119148254,0.15246820449829102,2.1105464e-08,0.7228752374649048,0.4488195478916168
19,0.9166058897972107,0.15169526636600494,2.1105464e-08,0.722595751285553,0.44911158084869385
20,0.9168310165405273,0.1509428322315216,2.1105464e-08,0.7223207950592041,0.4494099020957947
